verilog_ascon/verilog_ascon.sim/sim_1/behav/xsim/tb.vcd
$date
   Thu Mar 28 15:42:21 2024
$end
$version
  2020.2
$end
$timescale
  1ps
$end
$scope module tb $end
$var reg 24 2 tb_word_cnt [23:0] $end
$var reg 32 1 data [31:0] $end
$var reg 4 0 op [3:0] $end
$var reg 1 . clk $end
$var reg 1 / rst $end
$var reg 32 3 key [31:0] $end
$var reg 1 4 key_valid $end
$var reg 1 5 key_ready $end
$var reg 32 6 bdi [31:0] $end
$var reg 1 7 bdi_valid $end
$var reg 1 8 bdi_ready $end
$var reg 4 9 bdi_type [3:0] $end
$var reg 1 : bdi_eot $end
$var reg 1 ; bdi_eoi $end
$var reg 1 < decrypt $end
$var reg 1 = hash $end
$var reg 32 > bdo [31:0] $end
$var reg 1 ? bdo_valid $end
$var reg 1 @ bdo_ready $end
$var reg 4 A bdo_type [3:0] $end
$var reg 1 B bdo_eot $end
$var reg 1 E auth $end
$var reg 1 C auth_valid $end
$var reg 1 D auth_ready $end
$scope module ascon_core_i $end
$var reg 64 ! fsm [63:0] $end
$var reg 4 ' round_cnt [3:0] $end
$var reg 2 & word_cnt [1:0] $end
$var reg 2 ( hash_cnt [1:0] $end
$var reg 1 " flag_ad_eot $end
$var reg 1 # flag_dec $end
$var reg 1 $ flag_eoi $end
$var reg 1 % flag_hash $end
$var reg 64 ) x0 [63:0] $end
$var reg 64 * x1 [63:0] $end
$var reg 64 + x2 [63:0] $end
$var reg 64 , x3 [63:0] $end
$var reg 64 - x4 [63:0] $end
$upscope $end
$upscope $end
$enddefinitions $end
#0
$dumpvars
b0 !
x"
x#
x$
x%
bx &
bx '
bx (
bx )
bx *
bx +
bx ,
bx -
1.
0/
bx 0
bx 1
b0 2
bx 3
x4
05
bx 6
x7
08
bx 9
x:
x;
x<
x=
b0 >
0?
x@
b0 A
0B
xC
xD
xE
$end
#1
1/
#5
0.
#10
b1001001010001000100110001000101 !
b0 &
1.
b0 3
04
05
b0 6
07
08
b0 9
0:
0;
0<
0=
b0 >
0?
0@
b0 A
0B
0D
#11
0/
#15
0.
#20
b1001001010001000100110001000101 !
1.
b0 3
b0 6
b0 9
#25
0.
#30
b1001001010001000100110001000101 !
1.
b0 3
b0 6
b0 9
#35
0.
#40
b1001001010001000100110001000101 !
1.
b11 0
b110000000000000000000000010000 1
b101 2
b0 3
b0 6
b0 9
#45
0.
#50
b1001001010001000100110001000101 !
1.
b10011101011110011011000110100011 1
b100 2
b10011101011110011011000110100011 3
14
b0 6
b0 9
#55
0.
#60
b10011000100010001011111010010110100010101011001 !
0"
0#
0$
0%
1.
15
08
b0 >
0?
b0 A
0B
0C
0E
#65
0.
#70
b10011000100010001011111010010110100010101011001 !
b1 &
1.
b1111111001100011000000000011100 1
b11 2
b1111111001100011000000000011100 3
14
15
b0 6
08
b0 9
b0 >
0?
b0 A
0B
#75
0.
#80
b10011000100010001011111010010110100010101011001 !
b10 &
1.
b11010001000110100110011100000110 1
b10 2
b11010001000110100110011100000110 3
14
15
b0 6
08
b0 9
b0 >
0?
b0 A
0B
#85
0.
#90
b10011000100010001011111010010110100010101011001 !
b11 &
1.
b11111011010000001101011010111101 1
b1 2
b11111011010000001101011010111101 3
14
15
b0 6
08
b0 9
b0 >
0?
b0 A
0B
#95
0.
#100
b100110001000100010111110100111001001111010011100100001101000101 !
b0 &
1.
b0 3
04
05
b0 6
18
b0 9
b0 >
0?
b0 A
0B
#105
0.
#110
b100110001000100010111110100111001001111010011100100001101000101 !
1.
b0 3
b0 6
b0 9
#115
0.
#120
b100110001000100010111110100111001001111010011100100001101000101 !
1.
b0 3
b0 6
b0 9
#125
0.
#130
b100110001000100010111110100111001001111010011100100001101000101 !
1.
b0 3
b0 6
b0 9
#135
0.
#140
b100110001000100010111110100111001001111010011100100001101000101 !
1.
b0 0
b0 1
b1 2
b0 3
b0 6
b0 9
#145
0.
#150
b100110001000100010111110100111001001111010011100100001101000101 !
1.
b0 3
b0 6
b0 9
0<
0=
#155
0.
#160
b100110001000100010111110100111001001111010011100100001101000101 !
1.
b0 3
b0 6
b0 9
0<
0=
#165
0.
#170
b100110001000100010111110100111001001111010011100100001101000101 !
1.
b0 3
b0 6
b0 9
0<
0=
#175
0.
#180
b100110001000100010111110100111001001111010011100100001101000101 !
1.
b100 0
b1000000000000000000000000010000 1
b101 2
b0 3
b0 6
b0 9
0<
0=
#185
0.
#190
b100110001000100010111110100111001001111010011100100001101000101 !
1.
b1010111010100100110100001000110 1
b100 2
b0 3
05
b1010111010100100110100001000110 6
17
18
b1 9
b0 >
0?
b0 A
0B
#195
0.
#200
b100110001000100010111110100111001001111010011100100001101000101 !
b1 &
b1010111010100100110100001000110xxxxxxxxxxxxxxxxxxxxxxxxxxxxxxxx ,
1.
b10010000001110111011000100111110 1
b11 2
b0 3
05
b10010000001110111011000100111110 6
17
18
b1 9
b0 >
0?
b0 A
0B
#205
0.
#210
b100110001000100010111110100111001001111010011100100001101000101 !
b10 &
b101011101010010011010000100011010010000001110111011000100111110 ,
1.
b11011110010101100010010000111001 1
b10 2
b0 3
05
b11011110010101100010010000111001 6
17
18
b1 9
b0 >
0?
b0 A
0B
#215
0.
#220
b100110001000100010111110100111001001111010011100100001101000101 !
b11 &
b11011110010101100010010000111001xxxxxxxxxxxxxxxxxxxxxxxxxxxxxxxx -
1.
b11101001110000011011100000100011 1
b1 2
b0 3
05
b11101001110000011011100000100011 6
17
18
b1 9
1:
b0 >
0?
b0 A
0B
#225
0.
#230
b1001001010011100100100101010100 !
0#
b0 &
b1100 '
b1000000001000000000011000000011000000000000000000000000000000000 )
b1001110101111001101100011010001101111111001100011000000000011100 *
b1101000100011010011001110000011011111011010000001101011010111101 +
b1101111001010110001001000011100111101001110000011011100000100011 -
1.
b0 3
05
b0 6
07
08
b0 9
0:
b0 >
0?
b0 A
0B
#235
0.
#240
b1001001010011100100100101010100 !
b1011 '
b111000101011101001110011101001010111101010000101101111101010 )
b1010011110011111001111001001010010010010010011000100111000111011 *
b1101010111010010110110110011100010111001000001100101111111110 +
b1011100110110000101100011010111110000110010110010100001101011110 ,
b1111010111001010111000110100000000010001100100011010101111111101 -
1.
b0 3
05
b0 6
08
b0 9
b0 >
0?
b0 A
0B
#245
0.
#250
b1001001010011100100100101010100 !
b1010 '
b101000000001111000000011000110001010011011011010000100000101110 )
b110000100011101011111110111010110101101111011100000101110110111 *
b1110110111000010111101000000001101101111001101100111010000001110 +
b111111111000101101111100000011100011001100101101111011010010010 ,
b110101101110111011001001100110010010100001001111100110101110011 -
1.
b0 3
05
b0 6
08
b0 9
b0 >
0?
b0 A
0B
#255
0.
#260
b1001001010011100100100101010100 !
b1001 '
b1011111111111111111001011001110110100001010100101111110011101 )
b1110010011111001101110111111001111011001011010001010010011111011 *
b1111101010111011001101011000001100011011000011101011100101000 +
b101101100010100001001001001110100011011001111101000001101000111 ,
b1010110101001100001001011110011111111001111101010100000011000001 -
1.
b0 3
05
b0 6
08
b0 9
b0 >
0?
b0 A
0B
#265
0.
#270
b1001001010011100100100101010100 !
b1000 '
b110010100011000011010110110100010010000101111110110010000001110 )
b1100011010011001101110011011111001011000010011001011111101110 *
b1100111010010101110101101011111010001101001110001111010101101001 +
b111100111010101101100101101100011110010101011011011001001010101 ,
b1010111001101011101100010111101010010110101111011110111110010 -
1.
b101 0
b1010000000000000000000000010000 1
b101 2
b0 3
05
b0 6
08
b0 9
b0 >
0?
b0 A
0B
#275
0.
#280
b1001001010011100100100101010100 !
b111 '
b101011011111001001001011101110000100100111100010000110100101010 )
b1110101001110111100001101001000111011100001111110110101110001010 *
b1000001111011111001100100001000000100011101101001010101000011000 +
b1101101010111110100001000101101001101100010010001100010101111000 ,
b100110100000110011011101000111011110100100110111111001011000101 -
1.
b11010101100111100010110001001 1
b100 2
b0 3
05
b11010101100111100010110001001 6
17
08
b10 9
b0 >
0?
b0 A
0B
#285
0.
#290
b1001001010011100100100101010100 !
b110 '
b1001011000000111011111101100100001011001011111011111010011110100 )
b100000011111110001110110111000001100011111110011011110100100000 *
b110110010110001111011011000000000110010110101110001011001011010 +
b110001100111010100100000010001100111001100001101000000100001011 ,
b10011110011101011111011001001011100001010101000110011111100101 -
1.
05
08
b0 >
0?
b0 A
0B
#295
0.
#300
b1001001010011100100100101010100 !
b101 '
b11101111110100000101100110100100111001010001100111000101 )
b11111100111100101101011011111100000100110110111110000011110011 *
b1110001111110011001100111100001010100100011110111010111101000111 +
b1000011011111111011100111011111011110001101111010110100101101 ,
b101000000000111110100110101111111011111001101101010111010110001 -
1.
05
08
b0 >
0?
b0 A
0B
#305
0.
#310
b1001001010011100100100101010100 !
b100 '
b100111100100101010000011001010011010001100110001000110111001001 )
b10000000111011010001001101011010011111100111100011001101101111 *
b10001100100100100111010110110101011000000010010001010110111011 +
b110111100000001110010000001011111001110001100000011100011001 ,
b1001100110010001100101000010001110101000101101001011011111011101 -
1.
05
08
b0 >
0?
b0 A
0B
#315
0.
#320
b1001001010011100100100101010100 !
b11 '
b11110011110101011111100111000010101110010111000110110100011100 )
b1010001100001111100011000001010110111100100110011011110111101101 *
b1000011100111010101101011101111000110000100101010011110011111010 +
b1100100110101101110000001011011000001111111011110000101100110001 ,
b101101111111001101010000110001111000011100101010100110110011010 -
1.
05
08
b0 >
0?
b0 A
0B
#325
0.
#330
b1001001010011100100100101010100 !
b10 '
b1001010001111110111111000100001001010111111111101000110111100001 )
b1011010111000011100110110001000010110111000110000101101111101111 *
b1001110001111100101111011010111100110111010010101111100110 +
b101110111000110001110100100111110001110011101010100001101000011 ,
b1111111011011101111110110111110100011111110110110010010111000101 -
1.
05
08
b0 >
0?
b0 A
0B
#335
0.
#340
b1001001010011100100100101010100 !
b1 '
b1110110000001100110000101010011110001101000010000011111100000101 )
b1011110101010100000010010110001001011010101001000111111111011010 *
b11110011010111001011011110000110110000111111100011110000010000 +
b10001000010111101001111001011100110011010001101111111101001110 ,
b11010100100100101101001001101011100100011000000111010010001011 -
1.
05
08
b0 >
0?
b0 A
0B
#345
0.
#350
b100101101000101010110010101111101000001010001000100010000110010 !
b0 '
b11110101000000010101000000010000101001010010100001101010111000 )
b1110010010110000001110111000111010100000100010110001111101110000 *
b10001101011111110111011110001101101010000000010111010001110011 +
b1000110000001011001110100111110000101111011111011101111000001 ,
b11111011100011000001010010010010010000101100000100100101100111 -
1.
05
08
b0 >
0?
b0 A
0B
#355
0.
#360
b10000010100001001010011010111110100000101000100 !
b1000110011111000110101101110110011111010110111100011101111011101 ,
b1110111111111001011000100010001001101011111100001001111111011010 -
1.
05
18
b0 >
0?
b0 A
0B
#365
0.
#370
b10000010100001001010011010111110100000101000100 !
b1 &
b10011111110011100100011000110100101001010010100001101010111000 )
1.
b11100011111001100100111011000110 1
b11 2
b0 3
05
b11100011111001100100111011000110 6
17
18
b10 9
b0 >
0?
b0 A
0B
#375
0.
#380
b10100000101001001001111010111110100000101000100 !
b0 &
b110 '
b10011111110011100100011000110111001010101011000101010001111110 )
1.
b11111011111101100011001111011 1
b10 2
b0 3
05
b11111011111101100011001111011 6
17
08
b10 9
b0 >
0?
b0 A
0B
#385
0.
#390
b10100000101001001001111010111110100000101000100 !
b101 '
b10001011111011011111011000100100110110011010010000101111 )
b1001100000111010111111011000101110010101110100010100111011101001 *
b1101011111110101111000011011111001101110101011101100110000011101 +
b1010101000001000001001011100011010000011100011101111001011111 ,
b1000111001110110000010010110111100100111001011010011001111101001 -
1.
05
08
b0 >
0?
b0 A
0B
#395
0.
#400
b10100000101001001001111010111110100000101000100 !
b100 '
b1110000111111101111001000110110010100010101111011010010011011 )
b1010011101010110000101101001101111110110100010010100010001000 *
b1001011111101101100001000110000110000110110001000100001101001010 +
b1000010100011100001111100011000000100110000000100000100000110 ,
b1101111010010010110100000010111000000110010111101000010001011110 -
1.
05
08
b0 >
0?
b0 A
0B
#405
0.
#410
b10100000101001001001111010111110100000101000100 !
b11 '
b10100000110100101001000011100110110110010111110000001010011000 )
b100001000100011010010110000000111011110011101010100010011110111 *
b1110101010111001111100111001000010011000110011100100001010011 +
b1000101001011111010110011110110101100101101111101001101110100011 ,
b1010011111110000000101010111010110110110111111110110100100100000 -
1.
05
08
b0 >
0?
b0 A
0B
#415
0.
#420
b10100000101001001001111010111110100000101000100 !
b10 '
b1011011001110011010010110000101101101101000000001100111010010011 )
b1011001010000000011011000100010011001111100100110110011011000010 *
b110110101010111001111110100010000010001110000101001011100111 +
b101100001111100000100100100100110000100010110001110111110010000 ,
b1010100111010001100101001110111101011101001110000001100100101010 -
1.
05
08
b0 >
0?
b0 A
0B
#425
0.
#430
b10100000101001001001111010111110100000101000100 !
b1 '
b100111000111011011001010100101010101011111100011111101100000000 )
b111000001000010100001001101011100001100100010001000010010110001 *
b11101001111011110110110100110011001001011000110110010100010001 +
b1110010100101010101010011100000010010001001100010000001010011 ,
b1111001000000101100011000000000000100110111001101100011110000110 -
1.
05
08
b0 >
0?
b0 A
0B
#435
0.
#440
b10000010100001001010011010111110100000101000100 !
b0 '
b1110001100001110011100111001000011011101101110010101111011000 )
b10111001101101011100101010110100011110100110111001000001101110 *
b11110101111010001001001111011110000001110001011110011000111110 +
b10010000110100110100000000100010010011001101000010010110110100 ,
b1011000100100111001110000010010110011100011101111000011101000101 -
1.
05
18
b0 >
0?
b0 A
0B
#445
0.
#450
b10000010100001001010011010111110100000101000100 !
b1 &
b1100011111000010000000100100011011101101110010101111011000 )
1.
b11110111000000010111011110000000 1
b1 2
b0 3
05
b11110111000000010111011110000000 6
17
18
b10 9
1:
b0 >
0?
b0 A
0B
#455
0.
#460
b10100000101001001001111010111110100000101000100 !
1"
b0 &
b110 '
b1100011111000010000000100111101100101101100101110001011000 )
1.
b0 3
05
b0 6
07
08
b0 9
0:
b0 >
0?
b0 A
0B
#465
0.
#470
b10100000101001001001111010111110100000101000100 !
b101 '
b1011010001011100101010010111111011000100110011111010110000111010 )
b100010110000111100011000001010100010001100111011000010101010011 *
b1010001011101001111011110100011001011011001000001000011011101001 +
b100111111110110011111100101110010110010010011100001101000001001 ,
b1110100001100100101010110010100000010000100101111011101010000011 -
1.
b0 3
05
b0 6
08
b0 9
b0 >
0?
b0 A
0B
#475
0.
#480
b10100000101001001001111010111110100000101000100 !
b100 '
b110010101101110001101011110000011110011110111001010011101010 )
b11001100000111001101100111011101001111111111010100100000010001 *
b1110011000111011110101110011110011011101111011011011111100010001 +
b1110011010100111000110100101001001101000000111110110000100011101 ,
b1000110110001000110111011101011110101100010010011001001100100111 -
1.
b0 3
05
b0 6
08
b0 9
b0 >
0?
b0 A
0B
#485
0.
#490
b10100000101001001001111010111110100000101000100 !
b11 '
b1000011111110001011100101000010101101111100101001100000011010000 )
b1111100001011101110001111101010101001001011011100000111011010111 *
b10011010100001000110011100010111011010110111101110100110011101 +
b101101011111100110111110111011001100010100001110011110001110101 ,
b1100010101011011011101011000101110111111101001000001101110101111 -
1.
b110 0
b1100001000000000000000000010000 1
b101 2
b0 3
05
b0 6
08
b0 9
b0 >
0?
b0 A
0B
#495
0.
#500
b10100000101001001001111010111110100000101000100 !
b10 '
b1010110000001001010010010000101110100111111011100001100111110101 )
b10010000111110100001100000111110001100111110001110010110001010 *
b1010110010010000000000011101000000010010000111010010101010010000 +
b1111111100100111110001101010000111000101001010101011011100111010 ,
b1000010111010111101110000110100100100000110101100000000000101001 -
1.
b1001111110011111000000101101111 1
b100 2
b0 3
05
b1001111110011111000000101101111 6
17
08
b11 9
b0 >
0?
1@
b0 A
0B
#505
0.
#510
b10100000101001001001111010111110100000101000100 !
b1 '
b111011110001011001110110101101101010001111001110010100011111010 )
b101101111011001000111011111101111000111010101010011010100100110 *
b1011010110011111111001010101110111000000001011100001000000100011 +
b1110001111010001110101101100000110000000000011110000101011100110 ,
b11111011011011010001100001110111101110010110010100001110001011 -
1.
05
08
b0 >
0?
b0 A
0B
#515
0.
#520
b1000100010011110100110101011111010100110100010101010000 !
b0 '
b101110000101100001011000101111100011101011101110001011000011011 )
b1111111000011011001110111001011001000001100000011100110001001111 *
b1110101101011100010010001111101001001011111001011000010000001010 +
b1101111010001101110001100111100000111011011101101001111100100 ,
b10101010001011100111001110101101010001101011001011001000011001 -
1.
05
08
b0 >
0?
b0 A
0B
#525
0.
#530
b100000101000010010100110101111101010000010101000100001101010100 !
b10101010001011100111001110101101010001101011001011001000011000 -
1.
05
18
b10011111000111010110100110000 >
1?
b11 A
0B
#535
0.
#540
b100000101000010010100110101111101010000010101000100001101010100 !
b1 &
b1001111100011101011010011000000011101011101110001011000011011 )
1.
b10110110010101110110001111010011 1
b11 2
b0 3
05
b10110110010101110110001111010011 6
17
18
b11 9
b10101011001000000111010111001000 >
1?
1@
b11 A
0B
#545
0.
#550
b101000001010010010011110101111101010000010101000100001101010100 !
b0 &
b110 '
b1001111100011101011010011000010101011001000000111010111001000 )
1.
b10100011100010000010010010111011 1
b10 2
b0 3
05
b10100011100010000010010010111011 6
17
08
b11 9
b0 >
0?
1@
b0 A
0B
#555
0.
#560
b101000001010010010011110101111101010000010101000100001101010100 !
b101 '
b1100100000001001110011010100001111111010100011000010001101101100 )
b1110010011110001000100001010001101000000111001100001011011110000 *
b111110011000001000001101100100010111001000000100011001011110010 +
b111001111100010111000100011000100001100100101110010011001100011 ,
b10001100010111011100100011101110100101110100101110110111 -
1.
05
08
b0 >
0?
b0 A
0B
#565
0.
#570
b101000001010010010011110101111101010000010101000100001101010100 !
b100 '
b1001111000001101010010110100000100010011011011101110001101110101 )
b101111010110100010010100111100111110001100111101001011100010 *
b1110110110111101000000011010001111100101100001100011010111010010 +
b1001100010111011100011111100010110010011101000001001000011011111 ,
b101001101100001111100001001101111101011100010100011110001011100 -
1.
05
08
b0 >
0?
b0 A
0B
#575
0.
#580
b101000001010010010011110101111101010000010101000100001101010100 !
b11 '
b1011111101010100101111100010111011111111000000010011110010011111 )
b1000001000010100001110101110010010010101101111101111110010011111 *
b10101011010101010101001001000111001111010100010010111000111110 +
b1001001000100101000001100101010000110111111010101110111000010000 ,
b1110011101100101111100110111001111101000001000010111101100100110 -
1.
05
08
b0 >
0?
b0 A
0B
#585
0.
#590
b101000001010010010011110101111101010000010101000100001101010100 !
b10 '
b10100111101011011100101010010111100000101000011110010000111111 )
b1011011100011010000100011100010101101110111000101011111010100110 *
b1110111110001000101010010111111101111110001011011110011011101001 +
b1011110111111011110111111111010000111011001000000111010011111110 ,
b101010100000101111001001001111011001001100100000010010100001001 -
1.
05
08
b0 >
0?
b0 A
0B
#595
0.
#600
b101000001010010010011110101111101010000010101000100001101010100 !
b1 '
b101011010100100111010100101101001110101110110110101010100000001 )
b1011000001111110100001011010101001101010000101111101011100011 *
b1011101101000000011100010111010110000100110011100111011100000101 +
b1001110100110100110000001001001111010110101011001100001101111110 ,
b1101001001100011110111111110110001010010101011110111110010110100 -
1.
05
08
b0 >
0?
b0 A
0B
#605
0.
#610
b100000101000010010100110101111101010000010101000100001101010100 !
b0 '
b1110011101101010111101101000010001111111000001001111010011001000 )
b1101011110000101100100111111111100001000000110010100010101000001 *
b101000011001001001011001111111111100001100100011010100010000000 +
b1101001000110111100010011111010010111100110001111111100110010001 ,
b1111001010000011011000000111011011110101101101111100000010111100 -
1.
05
18
b1000100111000101101001000111111 >
1?
b11 A
0B
#615
0.
#620
b100000101000010010100110101111101010000010101000100001101010100 !
b1 &
b100010011100010110100100011111101111111000001001111010011001000 )
1.
b1101010101011001001011110000000 1
b1 2
b0 3
05
b1101010101011001001011110000000 6
17
18
b11 9
1:
1;
b10101101010000110001101001000 >
1?
1@
b11 A
1B
#625
0.
#630
b100101101000101010110010101111101000001010001000100010000110011 !
1$
b0 &
b100010011100010110100100011111100010101101010000110001101001000 )
1.
b0 3
05
b0 6
07
08
b0 9
0:
0;
b0 >
0?
0@
b0 A
0B
#635
0.
#640
b100011001001001010011100100000101001100 !
b1100 '
b100101011111100001000100101110001110111001010001100010101011101 *
b1000000111010011010010111111100100011010110100010111111000111101 +
1.
b0 3
05
b0 6
08
b0 9
b0 >
0?
b0 A
0B
#645
0.
#650
b100011001001001010011100100000101001100 !
b1011 '
b1110101000101110010111001001001000000000011100000001010101101000 )
b1100100111100011010101101111110000100000001110111110000111011000 *
b1001001000101001110011101010110111011001111000011011111101110011 +
b111000011001100101100111001001001111111100000001101100010001101 ,
b1110101111010111100100000111101111100000110110001100100110101010 -
1.
b0 3
05
b0 6
08
b0 9
b0 >
0?
b0 A
0B
#655
0.
#660
b100011001001001010011100100000101001100 !
b1010 '
b101110010001000101100101111110010100110000001100001011101100001 )
b11010011001000110100110000111011110001110101001001100010001 *
b1110010000001001110011011011101101011011010110101000011001011110 +
b100110000001111000010101010100101111111111011101101000011100110 ,
b1101001101110000101001100000011001111011110111000010101011000111 -
1.
b0 3
05
b0 6
08
b0 9
b0 >
0?
b0 A
0B
#665
0.
#670
b100011001001001010011100100000101001100 !
b1001 '
b101000000100001001110000111000100011100000101101110011010100110 )
b111011101000100001101111011100001011100101111110010100010100 *
b1100011100101000001101000000001001001010001000100001111101010011 +
b1111011100011110001011000100100011011110100011001010111011101101 ,
b1010100101000011010100101101111101000010010100011110001110010011 -
1.
b1 0
b10000000000000000000000000000 1
b1 2
b0 3
05
b0 6
08
b0 9
b0 >
0?
b0 A
0B
#675
0.
#680
b100011001001001010011100100000101001100 !
b1000 '
b10001000101111000001100100001111100010111011010010000100110 )
b1010011100100101101000110010000001000100001111100010000100101000 *
b10110111000111010000010110100010111111011101000101101001100 +
b1100001110100101011010001010111100111011110111000010000101001010 ,
b1100011100101010111101111110010110101111010110110101110011011001 -
1.
b0 3
05
b0 6
08
b0 9
1<
0=
b0 >
0?
b0 A
0B
#685
0.
#690
b100011001001001010011100100000101001100 !
b111 '
b1100010100111111000101111100101101101011111100100100001000010110 )
b100111100111101110100010001001111010001000111010010011111011101 *
b1000110010111001100100101110010111110100100110101011110101000111 +
b1101010000001000111100110100001111000100100001110100001100110101 ,
b1010001110000110011111101000101001001100000011100100010111110101 -
1.
b0 3
05
b0 6
08
b0 9
1<
0=
b0 >
0?
b0 A
0B
#695
0.
#700
b100011001001001010011100100000101001100 !
b110 '
b1111000011111011010101001011000110111110000011100001010110000110 )
b11101101001000100110001111110110111000000001100010100111101100 *
b1000001111100100111100000001100111100000000011001000000000100 +
b110000000000010010010001101011100101111000100011010010011100000 ,
b10101111011011010011011111001110000000000001100111001110011111 -
1.
b0 3
05
b0 6
08
b0 9
1<
0=
b0 >
0?
b0 A
0B
#705
0.
#710
b100011001001001010011100100000101001100 !
b101 '
b1110010000010101000001011100001010101110000110101010011110100010 )
b1101101111111010100011011110111100101110101000011011110111000101 *
b1100101111100111110010011100000110000001111011101110011100000111 +
b100011111111011100010001111100001000000011100110011010100010110 ,
b1001000111010001001011100111110101010000111110100011010111100100 -
1.
b100 0
b1000000000000000000000000010000 1
b101 2
b0 3
05
b0 6
08
b0 9
1<
0=
b0 >
0?
b0 A
0B
#715
0.
#720
b100011001001001010011100100000101001100 !
b100 '
b10000011000001111110001001011011011000111010010011101110111 )
b1010011100110000011001000001000110111011000101101011111011000011 *
b10100111101100010110010100100100110001001001000001010101100010 +
b1111010100000000100110000100000010011010011001000000000001100010 ,
b1101100000100000010001101001011000100011000001110011010100111000 -
1.
b1010111010100100110100001000110 1
b100 2
b0 3
05
b1010111010100100110100001000110 6
17
08
b1 9
b0 >
0?
b0 A
0B
#725
0.
#730
b100011001001001010011100100000101001100 !
b11 '
b100111001011101101010011000110001111000010101110100001001110010 )
b1010111001000110011100110110110010100100001010000100100100001111 *
b1011110001100110010010000011100100111011111110100110100000100101 +
b100010000011111011010100100110010110011100101101111011101100111 ,
b1101100111100001101010001011111011011000000101000100011010000100 -
1.
05
08
b0 >
0?
b0 A
0B
#735
0.
#740
b100011001001001010011100100000101001100 !
b10 '
b101000010110111110100001101011100001000000111111111100000110 )
b1000110110010011100100110000100111111000100010111110110100000010 *
b1011111111110000000110110000010001011100100110111000011001011010 +
b1000100010110100110000011011000000100110101010010010000111000110 ,
b11111111100000000111001010001101100110001011110111001101000011 -
1.
05
08
b0 >
0?
b0 A
0B
#745
0.
#750
b100011001001001010011100100000101001100 !
b1 '
b1011110011100000101110011001010101010011010111100100000001001110 )
b1111011101010111000001110000010110111111010000101110111100011 *
b111010001011001001011111010011001010010011100101000001010011001 +
b110011000010100111111001101000100111011100011011101001110101011 ,
b11100010110111011001010001001011011101111010101001001100000110 -
1.
05
08
b0 >
0?
b0 A
0B
#755
0.
#760
b100101101000101010110010101111101000001010001000100010000110100 !
b0 '
b1101101110110011010110100000110110000000110111111110001000110 )
b1110101100101110100010100110101100011010111011100011110110111001 *
b1110000100101111000101011010000011011110011111001010110000101100 +
b1010110000011010001010001010010010001101111010011010111111001011 ,
b1000100101101000001110010111011010010111101000110001011101001010 -
1.
05
08
b0 >
0?
b0 A
0B
#765
0.
#770
b1010011010100010101101001011111010101000100000101000111 !
b11000101100011100110010000011111110010110110000010111111010111 ,
b101100001110010010111100111000001101100111000111100000111110111 -
1.
05
08
b110001011000111001100100000111 >
1?
1@
b100 A
0B
#775
0.
#780
b1010011010100010101101001011111010101000100000101000111 !
b1 &
1.
05
08
b11110010110110000010111111010111 >
1?
b100 A
0B
#785
0.
#790
b1010011010100010101101001011111010101000100000101000111 !
b10 &
1.
05
08
b1011000011100100101111001110000 >
1?
b100 A
0B
#795
0.
#800
b1010011010100010101101001011111010101000100000101000111 !
b11 &
1.
05
08
b1101100111000111100000111110111 >
1?
b100 A
1B
#805
0.
#810
b1001001010001000100110001000101 !
b0 &
1.
05
08
b0 >
0?
b0 A
0B
#815
0.
#820
b100110001000100010111110100111001001111010011100100001101000101 !
0"
0#
0$
0%
1.
05
18
b0 >
0?
b0 A
0B
0C
0E
#825
0.
#830
b100110001000100010111110100111001001111010011100100001101000101 !
b1 &
b101011101010010011010000100011011110010110110000010111111010111 ,
1.
b10010000001110111011000100111110 1
b11 2
b0 3
05
b10010000001110111011000100111110 6
17
18
b1 9
b0 >
0?
0@
b0 A
0B
#835
0.
#840
b100110001000100010111110100111001001111010011100100001101000101 !
b10 &
b101011101010010011010000100011010010000001110111011000100111110 ,
1.
b11011110010101100010010000111001 1
b10 2
b0 3
05
b11011110010101100010010000111001 6
17
18
b1 9
b0 >
0?
b0 A
0B
#845
0.
#850
b100110001000100010111110100111001001111010011100100001101000101 !
b11 &
b1101111001010110001001000011100101101100111000111100000111110111 -
1.
b11101001110000011011100000100011 1
b1 2
b0 3
05
b11101001110000011011100000100011 6
17
18
b1 9
1:
b0 >
0?
b0 A
0B
#855
0.
#860
b1001001010011100100100101010100 !
1#
b0 &
b1100 '
b1000000001000000000011000000011000000000000000000000000000000000 )
b1001110101111001101100011010001101111111001100011000000000011100 *
b1101000100011010011001110000011011111011010000001101011010111101 +
b1101111001010110001001000011100111101001110000011011100000100011 -
1.
b0 3
05
b0 6
07
08
b0 9
0:
b0 >
0?
b0 A
0B
#865
0.
#870
b1001001010011100100100101010100 !
b1011 '
b111000101011101001110011101001010111101010000101101111101010 )
b1010011110011111001111001001010010010010010011000100111000111011 *
b1101010111010010110110110011100010111001000001100101111111110 +
b1011100110110000101100011010111110000110010110010100001101011110 ,
b1111010111001010111000110100000000010001100100011010101111111101 -
1.
b0 3
05
b0 6
08
b0 9
b0 >
0?
b0 A
0B
#875
0.
#880
b1001001010011100100100101010100 !
b1010 '
b101000000001111000000011000110001010011011011010000100000101110 )
b110000100011101011111110111010110101101111011100000101110110111 *
b1110110111000010111101000000001101101111001101100111010000001110 +
b111111111000101101111100000011100011001100101101111011010010010 ,
b110101101110111011001001100110010010100001001111100110101110011 -
1.
b0 3
05
b0 6
08
b0 9
b0 >
0?
b0 A
0B
#885
0.
#890
b1001001010011100100100101010100 !
b1001 '
b1011111111111111111001011001110110100001010100101111110011101 )
b1110010011111001101110111111001111011001011010001010010011111011 *
b1111101010111011001101011000001100011011000011101011100101000 +
b101101100010100001001001001110100011011001111101000001101000111 ,
b1010110101001100001001011110011111111001111101010100000011000001 -
1.
b0 3
05
b0 6
08
b0 9
b0 >
0?
b0 A
0B
#895
0.
#900
b1001001010011100100100101010100 !
b1000 '
b110010100011000011010110110100010010000101111110110010000001110 )
b1100011010011001101110011011111001011000010011001011111101110 *
b1100111010010101110101101011111010001101001110001111010101101001 +
b111100111010101101100101101100011110010101011011011001001010101 ,
b1010111001101011101100010111101010010110101111011110111110010 -
1.
b101 0
b1010000000000000000000000010000 1
b101 2
b0 3
05
b0 6
08
b0 9
b0 >
0?
b0 A
0B
#905
0.
#910
b1001001010011100100100101010100 !
b111 '
b101011011111001001001011101110000100100111100010000110100101010 )
b1110101001110111100001101001000111011100001111110110101110001010 *
b1000001111011111001100100001000000100011101101001010101000011000 +
b1101101010111110100001000101101001101100010010001100010101111000 ,
b100110100000110011011101000111011110100100110111111001011000101 -
1.
b11010101100111100010110001001 1
b100 2
b0 3
05
b11010101100111100010110001001 6
17
08
b10 9
b0 >
0?
b0 A
0B
#915
0.
#920
b1001001010011100100100101010100 !
b110 '
b1001011000000111011111101100100001011001011111011111010011110100 )
b100000011111110001110110111000001100011111110011011110100100000 *
b110110010110001111011011000000000110010110101110001011001011010 +
b110001100111010100100000010001100111001100001101000000100001011 ,
b10011110011101011111011001001011100001010101000110011111100101 -
1.
05
08
b0 >
0?
b0 A
0B
#925
0.
#930
b1001001010011100100100101010100 !
b101 '
b11101111110100000101100110100100111001010001100111000101 )
b11111100111100101101011011111100000100110110111110000011110011 *
b1110001111110011001100111100001010100100011110111010111101000111 +
b1000011011111111011100111011111011110001101111010110100101101 ,
b101000000000111110100110101111111011111001101101010111010110001 -
1.
05
08
b0 >
0?
b0 A
0B
#935
0.
